{
  "labels": ["January", "February", "March", "April", "May", "June", "July"],
  "series": ["Positive", "Netral", "Negative"],
  "data": [
    [28, 48, 40, 70, 86, 75, 90],
    [65, 59, 80, 81, 56, 55, 40],
    [35, 55, 65, 55, 40, 60, 75]
  ]
}
